<?xml version="1.0" encoding="UTF-8" standalone="no"?>
<!DOCTYPE svg PUBLIC "-//W3C//DTD SVG 1.1//EN"
 "http://www.w3.org/Graphics/SVG/1.1/DTD/svg11.dtd">
<!-- Generated by graphviz version 2.49.0 (0)
 -->
<!-- Title: HomeLab&#45;2020 Pages: 1 -->
<svg width="1185pt" height="3390pt"
 viewBox="0.00 0.00 1185.00 3390.00" xmlns="http://www.w3.org/2000/svg" xmlns:xlink="http://www.w3.org/1999/xlink">
<g id="graph0" class="graph" transform="scale(1 1) rotate(0) translate(144 3246)">
<title>HomeLab&#45;2020</title>
<polygon fill="white" stroke="transparent" points="-144,144 -144,-3246 1041,-3246 1041,144 -144,144"/>
<text text-anchor="middle" x="448.5" y="-9" font-family="Sans-Serif" font-size="15.00" fill="#2d3436">HomeLab&#45;2020</text>
<g id="clust1" class="cluster">
<title>cluster_IOT shit</title>
<path fill="#e5f5fd" stroke="#aeb6be" d="M626,-2019C626,-2019 719,-2019 719,-2019 725,-2019 731,-2025 731,-2031 731,-2031 731,-3082 731,-3082 731,-3088 725,-3094 719,-3094 719,-3094 626,-3094 626,-3094 620,-3094 614,-3088 614,-3082 614,-3082 614,-2031 614,-2031 614,-2025 620,-2019 626,-2019"/>
<text text-anchor="middle" x="645" y="-3080.4" font-family="Sans-Serif" font-size="12.00" fill="#2d3436">IOT shit</text>
</g>
<g id="clust2" class="cluster">
<title>cluster_Consume devices</title>
<path fill="#e5f5fd" stroke="#aeb6be" d="M624,-1656C624,-1656 722,-1656 722,-1656 728,-1656 734,-1662 734,-1668 734,-1668 734,-1999 734,-1999 734,-2005 728,-2011 722,-2011 722,-2011 624,-2011 624,-2011 618,-2011 612,-2005 612,-1999 612,-1999 612,-1668 612,-1668 612,-1662 618,-1656 624,-1656"/>
<text text-anchor="middle" x="673" y="-1997.4" font-family="Sans-Serif" font-size="12.00" fill="#2d3436">Consume devices</text>
</g>
<g id="clust3" class="cluster">
<title>cluster_Personal devices</title>
<path fill="#e5f5fd" stroke="#aeb6be" d="M469,-1476C469,-1476 562,-1476 562,-1476 568,-1476 574,-1482 574,-1488 574,-1488 574,-1819 574,-1819 574,-1825 568,-1831 562,-1831 562,-1831 469,-1831 469,-1831 463,-1831 457,-1825 457,-1819 457,-1819 457,-1488 457,-1488 457,-1482 463,-1476 469,-1476"/>
<text text-anchor="middle" x="515" y="-1817.4" font-family="Sans-Serif" font-size="12.00" fill="#2d3436">Personal devices</text>
</g>
<g id="clust4" class="cluster">
<title>cluster_virtual services</title>
<path fill="#e5f5fd" stroke="#aeb6be" d="M784,-33C784,-33 877,-33 877,-33 883,-33 889,-39 889,-45 889,-45 889,-2536 889,-2536 889,-2542 883,-2548 877,-2548 877,-2548 784,-2548 784,-2548 778,-2548 772,-2542 772,-2536 772,-2536 772,-45 772,-45 772,-39 778,-33 784,-33"/>
<text text-anchor="middle" x="825.5" y="-2534.4" font-family="Sans-Serif" font-size="12.00" fill="#2d3436">virtual services</text>
</g>
<g id="clust5" class="cluster">
<title>cluster_pve Node #1</title>
<path fill="#e5f5fd" stroke="#aeb6be" d="M469,-1293C469,-1293 719,-1293 719,-1293 725,-1293 731,-1299 731,-1305 731,-1305 731,-1456 731,-1456 731,-1462 725,-1468 719,-1468 719,-1468 469,-1468 469,-1468 463,-1468 457,-1462 457,-1456 457,-1456 457,-1305 457,-1305 457,-1299 463,-1293 469,-1293"/>
<text text-anchor="middle" x="504.5" y="-1454.4" font-family="Sans-Serif" font-size="12.00" fill="#2d3436">pve Node #1</text>
</g>
<!-- 8c24cbfeef5a4fbbb2aa951391920850 -->
<g id="node1" class="node">
<title>8c24cbfeef5a4fbbb2aa951391920850</title>
<image xlink:href="/mnt/Data/Workspace/HOME_LAB/NetworkDiagram/env_ND/lib/python3.9/site-packages/resources/onprem/network/internet.png" width="101px" height="101px" preserveAspectRatio="xMinYMin meet" x="155" y="-1963.5"/>
<text text-anchor="middle" x="205.5" y="-1848.1" font-family="Sans-Serif" font-size="13.00" fill="#2d3436">WAN</text>
</g>
<!-- 50f3000273d7476991824962bd6a4a77 -->
<g id="node7" class="node">
<title>50f3000273d7476991824962bd6a4a77</title>
<image xlink:href="/mnt/Data/Workspace/HOME_LAB/NetworkDiagram/env_ND/lib/python3.9/site-packages/resources/generic/network/router.png" width="101px" height="101px" preserveAspectRatio="xMinYMin meet" x="310" y="-1963.5"/>
<text text-anchor="middle" x="360.5" y="-1848.1" font-family="Sans-Serif" font-size="13.00" fill="#2d3436">Fritzbox 3490</text>
</g>
<!-- 8c24cbfeef5a4fbbb2aa951391920850&#45;&gt;50f3000273d7476991824962bd6a4a77 -->
<g id="edge35" class="edge">
<title>8c24cbfeef5a4fbbb2aa951391920850&#45;&gt;50f3000273d7476991824962bd6a4a77</title>
<path fill="none" stroke="black" stroke-width="2" d="M256.25,-1913C256.25,-1913 299.9,-1913 299.9,-1913"/>
<polygon fill="black" stroke="black" stroke-width="2" points="299.9,-1916.5 309.9,-1913 299.9,-1909.5 299.9,-1916.5"/>
</g>
<!-- db5d8a066fab4b49900d9c5be6dc0ff8 -->
<g id="node2" class="node">
<title>db5d8a066fab4b49900d9c5be6dc0ff8</title>
<image xlink:href="/mnt/Data/Workspace/HOME_LAB/NetworkDiagram/env_ND/lib/python3.9/site-packages/resources/generic/os/android.png" width="101px" height="101px" preserveAspectRatio="xMinYMin meet" x="310" y="-1783.5"/>
<text text-anchor="middle" x="360.5" y="-1668.1" font-family="Sans-Serif" font-size="13.00" fill="#2d3436">LineageOS</text>
</g>
<!-- 9e814c79fb224d2eb23c6003a03c4977 -->
<g id="node19" class="node">
<title>9e814c79fb224d2eb23c6003a03c4977</title>
<image xlink:href="/mnt/Data/Workspace/HOME_LAB/NetworkDiagram/env_ND/lib/python3.9/site-packages/resources/onprem/client/client.png" width="101px" height="101px" preserveAspectRatio="xMinYMin meet" x="465" y="-1783.5"/>
<text text-anchor="middle" x="515.5" y="-1668.1" font-family="Sans-Serif" font-size="13.00" fill="#2d3436">Pixel 5</text>
</g>
<!-- db5d8a066fab4b49900d9c5be6dc0ff8&#45;&gt;9e814c79fb224d2eb23c6003a03c4977 -->
<g id="edge4" class="edge">
<title>db5d8a066fab4b49900d9c5be6dc0ff8&#45;&gt;9e814c79fb224d2eb23c6003a03c4977</title>
<path fill="none" stroke="green" stroke-width="2" d="M411.25,-1733C428.47,-1733 447.69,-1733 464.9,-1733"/>
</g>
<!-- 79b05f57891a4ba0922c7df792703f40 -->
<g id="node3" class="node">
<title>79b05f57891a4ba0922c7df792703f40</title>
<image xlink:href="/mnt/Data/Workspace/HOME_LAB/NetworkDiagram/env_ND/lib/python3.9/site-packages/resources/generic/os/linux-general.png" width="101px" height="101px" preserveAspectRatio="xMinYMin meet" x="310" y="-1603.5"/>
<text text-anchor="middle" x="360.5" y="-1488.1" font-family="Sans-Serif" font-size="13.00" fill="#2d3436">Arch</text>
</g>
<!-- 6ec4bd6768244f0fa67990fd61f117e2 -->
<g id="node18" class="node">
<title>6ec4bd6768244f0fa67990fd61f117e2</title>
<image xlink:href="/mnt/Data/Workspace/HOME_LAB/NetworkDiagram/env_ND/lib/python3.9/site-packages/resources/onprem/client/client.png" width="101px" height="101px" preserveAspectRatio="xMinYMin meet" x="465" y="-1603.5"/>
<text text-anchor="middle" x="515.5" y="-1488.1" font-family="Sans-Serif" font-size="13.00" fill="#2d3436">Dell g5 5587</text>
</g>
<!-- 79b05f57891a4ba0922c7df792703f40&#45;&gt;6ec4bd6768244f0fa67990fd61f117e2 -->
<g id="edge3" class="edge">
<title>79b05f57891a4ba0922c7df792703f40&#45;&gt;6ec4bd6768244f0fa67990fd61f117e2</title>
<path fill="none" stroke="green" stroke-width="2" d="M411.25,-1530.17C428.47,-1530.17 447.69,-1530.17 464.9,-1530.17"/>
</g>
<!-- aca898301a224f07adba48c8b1828ae2 -->
<g id="node4" class="node">
<title>aca898301a224f07adba48c8b1828ae2</title>
<image xlink:href="/mnt/Data/Workspace/HOME_LAB/NetworkDiagram/env_ND/lib/python3.9/site-packages/resources/generic/os/linux-general.png" width="101px" height="101px" preserveAspectRatio="xMinYMin meet" x="622" y="-1240.5"/>
<text text-anchor="middle" x="672.5" y="-1125.1" font-family="Sans-Serif" font-size="13.00" fill="#2d3436">Debian</text>
</g>
<!-- 314241116476425c9fe8063e17844039 -->
<g id="node20" class="node">
<title>314241116476425c9fe8063e17844039</title>
<image xlink:href="/mnt/Data/Workspace/HOME_LAB/NetworkDiagram/env_ND/lib/python3.9/site-packages/resources/onprem/container/lxc.png" width="101px" height="93.1094px" preserveAspectRatio="xMinYMin meet" x="780" y="-1056.55"/>
<text text-anchor="middle" x="830.5" y="-945.1" font-family="Sans-Serif" font-size="13.00" fill="#2d3436">Nextcloud</text>
</g>
<!-- aca898301a224f07adba48c8b1828ae2&#45;&gt;314241116476425c9fe8063e17844039 -->
<g id="edge5" class="edge">
<title>aca898301a224f07adba48c8b1828ae2&#45;&gt;314241116476425c9fe8063e17844039</title>
<path fill="none" stroke="green" stroke-width="2" d="M709,-1121.33C709,-1062.49 709,-987.17 709,-987.17 709,-987.17 746.38,-987.17 779.68,-987.17"/>
</g>
<!-- d52562ce8f614a72a1efc8f73adea193 -->
<g id="node21" class="node">
<title>d52562ce8f614a72a1efc8f73adea193</title>
<image xlink:href="/mnt/Data/Workspace/HOME_LAB/NetworkDiagram/env_ND/lib/python3.9/site-packages/resources/onprem/container/lxc.png" width="101px" height="93.1094px" preserveAspectRatio="xMinYMin meet" x="780" y="-876.555"/>
<text text-anchor="middle" x="830.5" y="-765.1" font-family="Sans-Serif" font-size="13.00" fill="#2d3436">MLdonkey</text>
</g>
<!-- aca898301a224f07adba48c8b1828ae2&#45;&gt;d52562ce8f614a72a1efc8f73adea193 -->
<g id="edge6" class="edge">
<title>aca898301a224f07adba48c8b1828ae2&#45;&gt;d52562ce8f614a72a1efc8f73adea193</title>
<path fill="none" stroke="green" stroke-width="2" d="M695,-1121.11C695,-1010.89 695,-807.17 695,-807.17 695,-807.17 741.21,-807.17 779.66,-807.17"/>
</g>
<!-- ea47c044c3fd4f66b63e6c6515853812 -->
<g id="node22" class="node">
<title>ea47c044c3fd4f66b63e6c6515853812</title>
<image xlink:href="/mnt/Data/Workspace/HOME_LAB/NetworkDiagram/env_ND/lib/python3.9/site-packages/resources/onprem/container/lxc.png" width="101px" height="93.1094px" preserveAspectRatio="xMinYMin meet" x="780" y="-696.555"/>
<text text-anchor="middle" x="830.5" y="-585.1" font-family="Sans-Serif" font-size="13.00" fill="#2d3436">LogAnalyzer</text>
</g>
<!-- aca898301a224f07adba48c8b1828ae2&#45;&gt;ea47c044c3fd4f66b63e6c6515853812 -->
<g id="edge7" class="edge">
<title>aca898301a224f07adba48c8b1828ae2&#45;&gt;ea47c044c3fd4f66b63e6c6515853812</title>
<path fill="none" stroke="green" stroke-width="2" d="M680,-1121.27C680,-971.12 680,-627.17 680,-627.17 680,-627.17 736.25,-627.17 779.97,-627.17"/>
</g>
<!-- d104afaebd074c9eac2383af0bf9a666 -->
<g id="node23" class="node">
<title>d104afaebd074c9eac2383af0bf9a666</title>
<image xlink:href="/mnt/Data/Workspace/HOME_LAB/NetworkDiagram/env_ND/lib/python3.9/site-packages/resources/onprem/container/lxc.png" width="101px" height="93.1094px" preserveAspectRatio="xMinYMin meet" x="780" y="-516.555"/>
<text text-anchor="middle" x="830.5" y="-405.1" font-family="Sans-Serif" font-size="13.00" fill="#2d3436">Plex</text>
</g>
<!-- aca898301a224f07adba48c8b1828ae2&#45;&gt;d104afaebd074c9eac2383af0bf9a666 -->
<g id="edge8" class="edge">
<title>aca898301a224f07adba48c8b1828ae2&#45;&gt;d104afaebd074c9eac2383af0bf9a666</title>
<path fill="none" stroke="green" stroke-width="2" d="M666,-1121.45C666,-937.55 666,-447.17 666,-447.17 666,-447.17 731.47,-447.17 779.8,-447.17"/>
</g>
<!-- 429c58248e58456c981c1ef39c75e36b -->
<g id="node24" class="node">
<title>429c58248e58456c981c1ef39c75e36b</title>
<image xlink:href="/mnt/Data/Workspace/HOME_LAB/NetworkDiagram/env_ND/lib/python3.9/site-packages/resources/onprem/container/lxc.png" width="101px" height="93.1094px" preserveAspectRatio="xMinYMin meet" x="780" y="-336.555"/>
<text text-anchor="middle" x="830.5" y="-225.1" font-family="Sans-Serif" font-size="13.00" fill="#2d3436">NFS</text>
</g>
<!-- aca898301a224f07adba48c8b1828ae2&#45;&gt;429c58248e58456c981c1ef39c75e36b -->
<g id="edge9" class="edge">
<title>aca898301a224f07adba48c8b1828ae2&#45;&gt;429c58248e58456c981c1ef39c75e36b</title>
<path fill="none" stroke="green" stroke-width="2" d="M651,-1121.39C651,-907.52 651,-267.17 651,-267.17 651,-267.17 726.47,-267.17 779.54,-267.17"/>
</g>
<!-- 9b77fbdcfdd9403f8a994b015adce0f5 -->
<g id="node25" class="node">
<title>9b77fbdcfdd9403f8a994b015adce0f5</title>
<image xlink:href="/mnt/Data/Workspace/HOME_LAB/NetworkDiagram/env_ND/lib/python3.9/site-packages/resources/onprem/container/lxc.png" width="101px" height="93.1094px" preserveAspectRatio="xMinYMin meet" x="780" y="-156.555"/>
<text text-anchor="middle" x="830.5" y="-45.1" font-family="Sans-Serif" font-size="13.00" fill="#2d3436">RainLoop</text>
</g>
<!-- aca898301a224f07adba48c8b1828ae2&#45;&gt;9b77fbdcfdd9403f8a994b015adce0f5 -->
<g id="edge10" class="edge">
<title>aca898301a224f07adba48c8b1828ae2&#45;&gt;9b77fbdcfdd9403f8a994b015adce0f5</title>
<path fill="none" stroke="green" stroke-width="2" d="M637,-1121.43C637,-880.49 637,-87.17 637,-87.17 637,-87.17 722.58,-87.17 779.91,-87.17"/>
</g>
<!-- 6f369cd214e0402e8382261443070a70 -->
<g id="node26" class="node">
<title>6f369cd214e0402e8382261443070a70</title>
<image xlink:href="/mnt/Data/Workspace/HOME_LAB/NetworkDiagram/env_ND/lib/python3.9/site-packages/resources/onprem/container/lxc.png" width="101px" height="93.1094px" preserveAspectRatio="xMinYMin meet" x="780" y="-2496.55"/>
<text text-anchor="middle" x="830.5" y="-2385.1" font-family="Sans-Serif" font-size="13.00" fill="#2d3436">Firefly&#45;iii</text>
</g>
<!-- aca898301a224f07adba48c8b1828ae2&#45;&gt;6f369cd214e0402e8382261443070a70 -->
<g id="edge11" class="edge">
<title>aca898301a224f07adba48c8b1828ae2&#45;&gt;6f369cd214e0402e8382261443070a70</title>
<path fill="none" stroke="green" stroke-width="2" d="M723.01,-1241.38C729.53,-1241.38 734,-1241.38 734,-1241.38 734,-1241.38 734,-2431.17 734,-2431.17 734,-2431.17 756.64,-2431.17 779.99,-2431.17"/>
</g>
<!-- dca9f89485ca4756801e22f45058f8a6 -->
<g id="node27" class="node">
<title>dca9f89485ca4756801e22f45058f8a6</title>
<image xlink:href="/mnt/Data/Workspace/HOME_LAB/NetworkDiagram/env_ND/lib/python3.9/site-packages/resources/onprem/container/lxc.png" width="101px" height="93.1094px" preserveAspectRatio="xMinYMin meet" x="780" y="-2316.55"/>
<text text-anchor="middle" x="830.5" y="-2205.1" font-family="Sans-Serif" font-size="13.00" fill="#2d3436">Grafana/Influxdb</text>
</g>
<!-- aca898301a224f07adba48c8b1828ae2&#45;&gt;dca9f89485ca4756801e22f45058f8a6 -->
<g id="edge12" class="edge">
<title>aca898301a224f07adba48c8b1828ae2&#45;&gt;dca9f89485ca4756801e22f45058f8a6</title>
<path fill="none" stroke="green" stroke-width="2" d="M723.32,-1224.25C734.97,-1224.25 744,-1224.25 744,-1224.25 744,-1224.25 744,-2251.17 744,-2251.17 744,-2251.17 761,-2251.17 779.93,-2251.17"/>
</g>
<!-- 246148d5e6324776a3573265903f1b69 -->
<g id="node28" class="node">
<title>246148d5e6324776a3573265903f1b69</title>
<image xlink:href="/mnt/Data/Workspace/HOME_LAB/NetworkDiagram/env_ND/lib/python3.9/site-packages/resources/onprem/container/lxc.png" width="101px" height="93.1094px" preserveAspectRatio="xMinYMin meet" x="780" y="-2136.55"/>
<text text-anchor="middle" x="830.5" y="-2025.1" font-family="Sans-Serif" font-size="13.00" fill="#2d3436">tt&#45;rss</text>
</g>
<!-- aca898301a224f07adba48c8b1828ae2&#45;&gt;246148d5e6324776a3573265903f1b69 -->
<g id="edge13" class="edge">
<title>aca898301a224f07adba48c8b1828ae2&#45;&gt;246148d5e6324776a3573265903f1b69</title>
<path fill="none" stroke="green" stroke-width="2" d="M723.19,-1207.12C739.76,-1207.12 754,-1207.12 754,-1207.12 754,-1207.12 754,-2071.17 754,-2071.17 754,-2071.17 765.67,-2071.17 779.9,-2071.17"/>
</g>
<!-- aeb9ddf8e60d4eee86d20be4a801ee22 -->
<g id="node29" class="node">
<title>aeb9ddf8e60d4eee86d20be4a801ee22</title>
<image xlink:href="/mnt/Data/Workspace/HOME_LAB/NetworkDiagram/env_ND/lib/python3.9/site-packages/resources/onprem/container/lxc.png" width="101px" height="93.1094px" preserveAspectRatio="xMinYMin meet" x="780" y="-1956.55"/>
<text text-anchor="middle" x="830.5" y="-1845.1" font-family="Sans-Serif" font-size="13.00" fill="#2d3436">HomeAssistant</text>
</g>
<!-- aca898301a224f07adba48c8b1828ae2&#45;&gt;aeb9ddf8e60d4eee86d20be4a801ee22 -->
<g id="edge14" class="edge">
<title>aca898301a224f07adba48c8b1828ae2&#45;&gt;aeb9ddf8e60d4eee86d20be4a801ee22</title>
<path fill="none" stroke="green" stroke-width="2" d="M723.07,-1190C744.23,-1190 764,-1190 764,-1190 764,-1190 764,-1889.17 764,-1889.17 764,-1889.17 770.66,-1889.17 779.76,-1889.17"/>
</g>
<!-- f5af2958674e4e07b5a3e6edfcc62b73 -->
<g id="node30" class="node">
<title>f5af2958674e4e07b5a3e6edfcc62b73</title>
<image xlink:href="/mnt/Data/Workspace/HOME_LAB/NetworkDiagram/env_ND/lib/python3.9/site-packages/resources/onprem/container/lxc.png" width="101px" height="93.1094px" preserveAspectRatio="xMinYMin meet" x="780" y="-1776.55"/>
<text text-anchor="middle" x="830.5" y="-1665.1" font-family="Sans-Serif" font-size="13.00" fill="#2d3436">PiAlert</text>
</g>
<!-- aca898301a224f07adba48c8b1828ae2&#45;&gt;f5af2958674e4e07b5a3e6edfcc62b73 -->
<g id="edge15" class="edge">
<title>aca898301a224f07adba48c8b1828ae2&#45;&gt;f5af2958674e4e07b5a3e6edfcc62b73</title>
<path fill="none" stroke="green" stroke-width="2" d="M723.25,-1172.88C746.94,-1172.88 770,-1172.88 770,-1172.88 770,-1172.88 770,-1731.5 770,-1731.5 770,-1731.5 774.02,-1731.5 779.99,-1731.5"/>
</g>
<!-- 2fddb730504f49bf9fa64d53712e4eff -->
<g id="node31" class="node">
<title>2fddb730504f49bf9fa64d53712e4eff</title>
<image xlink:href="/mnt/Data/Workspace/HOME_LAB/NetworkDiagram/env_ND/lib/python3.9/site-packages/resources/onprem/container/lxc.png" width="101px" height="93.1094px" preserveAspectRatio="xMinYMin meet" x="780" y="-1596.55"/>
<text text-anchor="middle" x="830.5" y="-1485.1" font-family="Sans-Serif" font-size="13.00" fill="#2d3436">PiHole</text>
</g>
<!-- aca898301a224f07adba48c8b1828ae2&#45;&gt;2fddb730504f49bf9fa64d53712e4eff -->
<g id="edge16" class="edge">
<title>aca898301a224f07adba48c8b1828ae2&#45;&gt;2fddb730504f49bf9fa64d53712e4eff</title>
<path fill="none" stroke="green" stroke-width="2" d="M723.22,-1155.75C749.84,-1155.75 777,-1155.75 777,-1155.75 777,-1155.75 777,-1529.17 777,-1529.17 777,-1529.17 778.06,-1529.17 779.88,-1529.17"/>
</g>
<!-- 1719746f384741f1ae195c46a57965d8 -->
<g id="node32" class="node">
<title>1719746f384741f1ae195c46a57965d8</title>
<image xlink:href="/mnt/Data/Workspace/HOME_LAB/NetworkDiagram/env_ND/lib/python3.9/site-packages/resources/onprem/container/lxc.png" width="101px" height="93.1094px" preserveAspectRatio="xMinYMin meet" x="780" y="-1416.55"/>
<text text-anchor="middle" x="830.5" y="-1305.1" font-family="Sans-Serif" font-size="13.00" fill="#2d3436">VaultWarden</text>
</g>
<!-- aca898301a224f07adba48c8b1828ae2&#45;&gt;1719746f384741f1ae195c46a57965d8 -->
<g id="edge17" class="edge">
<title>aca898301a224f07adba48c8b1828ae2&#45;&gt;1719746f384741f1ae195c46a57965d8</title>
<path fill="none" stroke="green" stroke-width="2" d="M656,-1258.54C656,-1274.62 656,-1287.17 656,-1287.17 656,-1287.17 814,-1287.17 814,-1287.17 814,-1287.17 814,-1292.84 814,-1301.22"/>
</g>
<!-- 0c93ceb6045b4a6e8114168469cab269 -->
<g id="node33" class="node">
<title>0c93ceb6045b4a6e8114168469cab269</title>
<image xlink:href="/mnt/Data/Workspace/HOME_LAB/NetworkDiagram/env_ND/lib/python3.9/site-packages/resources/onprem/container/lxc.png" width="101px" height="93.1094px" preserveAspectRatio="xMinYMin meet" x="780" y="-1236.55"/>
<text text-anchor="middle" x="830.5" y="-1125.1" font-family="Sans-Serif" font-size="13.00" fill="#2d3436">PaperMerge</text>
</g>
<!-- aca898301a224f07adba48c8b1828ae2&#45;&gt;0c93ceb6045b4a6e8114168469cab269 -->
<g id="edge18" class="edge">
<title>aca898301a224f07adba48c8b1828ae2&#45;&gt;0c93ceb6045b4a6e8114168469cab269</title>
<path fill="none" stroke="green" stroke-width="2" d="M723.36,-1138.62C741.4,-1138.62 761.7,-1138.62 779.73,-1138.62"/>
</g>
<!-- 1d83541d043e449682b37f600fe8c2d9 -->
<g id="node5" class="node">
<title>1d83541d043e449682b37f600fe8c2d9</title>
<image xlink:href="/mnt/Data/Workspace/HOME_LAB/NetworkDiagram/env_ND/lib/python3.9/site-packages/resources/generic/os/linux-general.png" width="101px" height="101px" preserveAspectRatio="xMinYMin meet" x="155" y="-1603.5"/>
<text text-anchor="middle" x="205.5" y="-1488.1" font-family="Sans-Serif" font-size="13.00" fill="#2d3436">NixOS</text>
</g>
<!-- 1d83541d043e449682b37f600fe8c2d9&#45;&gt;79b05f57891a4ba0922c7df792703f40 -->
<g id="edge2" class="edge">
<title>1d83541d043e449682b37f600fe8c2d9&#45;&gt;79b05f57891a4ba0922c7df792703f40</title>
<path fill="none" stroke="#7b8894" d="M256.25,-1553C273.47,-1553 292.69,-1553 309.9,-1553"/>
</g>
<!-- 2c3eb8f7286645d5a4d3fd3ee15c5600 -->
<g id="node6" class="node">
<title>2c3eb8f7286645d5a4d3fd3ee15c5600</title>
<image xlink:href="/mnt/Data/Workspace/HOME_LAB/NetworkDiagram/env_ND/lib/python3.9/site-packages/resources/generic/os/linux-general.png" width="101px" height="101px" preserveAspectRatio="xMinYMin meet" x="0" y="-1603.5"/>
<text text-anchor="middle" x="50.5" y="-1488.1" font-family="Sans-Serif" font-size="13.00" fill="#2d3436">Ubuntu</text>
</g>
<!-- 2c3eb8f7286645d5a4d3fd3ee15c5600&#45;&gt;1d83541d043e449682b37f600fe8c2d9 -->
<g id="edge1" class="edge">
<title>2c3eb8f7286645d5a4d3fd3ee15c5600&#45;&gt;1d83541d043e449682b37f600fe8c2d9</title>
<path fill="none" stroke="#7b8894" d="M101.25,-1553C118.47,-1553 137.69,-1553 154.9,-1553"/>
</g>
<!-- 0f8cb70b04d54718914797ec098e79ef -->
<g id="node8" class="node">
<title>0f8cb70b04d54718914797ec098e79ef</title>
<image xlink:href="/mnt/Data/Workspace/HOME_LAB/NetworkDiagram/env_ND/lib/python3.9/site-packages/resources/generic/network/router.png" width="101px" height="101px" preserveAspectRatio="xMinYMin meet" x="465" y="-2506.5"/>
<text text-anchor="middle" x="515.5" y="-2391.1" font-family="Sans-Serif" font-size="13.00" fill="#2d3436">Fritxbox repeater 310</text>
</g>
<!-- 50f3000273d7476991824962bd6a4a77&#45;&gt;0f8cb70b04d54718914797ec098e79ef -->
<g id="edge39" class="edge">
<title>50f3000273d7476991824962bd6a4a77&#45;&gt;0f8cb70b04d54718914797ec098e79ef</title>
<path fill="none" stroke="red" stroke-width="2" d="M361,-1981.77C361,-2127.89 361,-2456 361,-2456 361,-2456 454.91,-2456 454.91,-2456"/>
<polygon fill="red" stroke="red" stroke-width="2" points="454.91,-2459.5 464.91,-2456 454.91,-2452.5 454.91,-2459.5"/>
</g>
<!-- f630b7ea85ff4a1a9bed94e7e7ca6163 -->
<g id="node9" class="node">
<title>f630b7ea85ff4a1a9bed94e7e7ca6163</title>
<image xlink:href="/mnt/Data/Workspace/HOME_LAB/NetworkDiagram/env_ND/lib/python3.9/site-packages/resources/generic/network/switch.png" width="101px" height="101px" preserveAspectRatio="xMinYMin meet" x="465" y="-1963.5"/>
<text text-anchor="middle" x="515.5" y="-1848.1" font-family="Sans-Serif" font-size="13.00" fill="#2d3436">Dlink&#45;unmanaged</text>
</g>
<!-- 50f3000273d7476991824962bd6a4a77&#45;&gt;f630b7ea85ff4a1a9bed94e7e7ca6163 -->
<g id="edge36" class="edge">
<title>50f3000273d7476991824962bd6a4a77&#45;&gt;f630b7ea85ff4a1a9bed94e7e7ca6163</title>
<path fill="none" stroke="black" stroke-width="2" d="M411.25,-1935.83C411.25,-1935.83 454.9,-1935.83 454.9,-1935.83"/>
<polygon fill="black" stroke="black" stroke-width="2" points="454.9,-1939.33 464.9,-1935.83 454.9,-1932.33 454.9,-1939.33"/>
</g>
<!-- 50f3000273d7476991824962bd6a4a77&#45;&gt;6ec4bd6768244f0fa67990fd61f117e2 -->
<g id="edge46" class="edge">
<title>50f3000273d7476991824962bd6a4a77&#45;&gt;6ec4bd6768244f0fa67990fd61f117e2</title>
<path fill="none" stroke="red" stroke-width="2" d="M411.33,-1890.17C425.94,-1890.17 438,-1890.17 438,-1890.17 438,-1890.17 438,-1575.83 438,-1575.83 438,-1575.83 454.67,-1575.83 454.67,-1575.83"/>
<polygon fill="red" stroke="red" stroke-width="2" points="454.67,-1579.33 464.67,-1575.83 454.67,-1572.33 454.67,-1579.33"/>
</g>
<!-- 50f3000273d7476991824962bd6a4a77&#45;&gt;9e814c79fb224d2eb23c6003a03c4977 -->
<g id="edge47" class="edge">
<title>50f3000273d7476991824962bd6a4a77&#45;&gt;9e814c79fb224d2eb23c6003a03c4977</title>
<path fill="none" stroke="red" stroke-width="2" d="M361,-1844.29C361,-1827.79 361,-1814.83 361,-1814.83 361,-1814.83 499,-1814.83 499,-1814.83 499,-1814.83 499,-1811.69 499,-1811.69"/>
<polygon fill="red" stroke="red" stroke-width="2" points="502.5,-1811.69 499,-1801.69 495.5,-1811.69 502.5,-1811.69"/>
</g>
<!-- 78afc6954ef04f1f9448663016930a97 -->
<g id="node10" class="node">
<title>78afc6954ef04f1f9448663016930a97</title>
<image xlink:href="/mnt/Data/Workspace/HOME_LAB/NetworkDiagram/env_ND/lib/python3.9/site-packages/resources/onprem/client/client.png" width="101px" height="101px" preserveAspectRatio="xMinYMin meet" x="622" y="-2686.5"/>
<text text-anchor="middle" x="672.5" y="-2571.1" font-family="Sans-Serif" font-size="13.00" fill="#2d3436">Shelly T/H #1</text>
</g>
<!-- 0f8cb70b04d54718914797ec098e79ef&#45;&gt;78afc6954ef04f1f9448663016930a97 -->
<g id="edge40" class="edge">
<title>0f8cb70b04d54718914797ec098e79ef&#45;&gt;78afc6954ef04f1f9448663016930a97</title>
<path fill="none" stroke="red" stroke-width="2" d="M541,-2524.56C541,-2575.43 541,-2636 541,-2636 541,-2636 611.66,-2636 611.66,-2636"/>
<polygon fill="red" stroke="red" stroke-width="2" points="611.66,-2639.5 621.66,-2636 611.66,-2632.5 611.66,-2639.5"/>
</g>
<!-- ca014f598389421da4c9ff9f149872a9 -->
<g id="node11" class="node">
<title>ca014f598389421da4c9ff9f149872a9</title>
<image xlink:href="/mnt/Data/Workspace/HOME_LAB/NetworkDiagram/env_ND/lib/python3.9/site-packages/resources/onprem/client/client.png" width="101px" height="101px" preserveAspectRatio="xMinYMin meet" x="622" y="-2506.5"/>
<text text-anchor="middle" x="672.5" y="-2391.1" font-family="Sans-Serif" font-size="13.00" fill="#2d3436">Shelly T/H #2</text>
</g>
<!-- 0f8cb70b04d54718914797ec098e79ef&#45;&gt;ca014f598389421da4c9ff9f149872a9 -->
<g id="edge41" class="edge">
<title>0f8cb70b04d54718914797ec098e79ef&#45;&gt;ca014f598389421da4c9ff9f149872a9</title>
<path fill="none" stroke="red" stroke-width="2" d="M566.04,-2456C566.04,-2456 611.79,-2456 611.79,-2456"/>
<polygon fill="red" stroke="red" stroke-width="2" points="611.79,-2459.5 621.79,-2456 611.79,-2452.5 611.79,-2459.5"/>
</g>
<!-- 33c770d983864a389a79fcd9f75b9b68 -->
<g id="node12" class="node">
<title>33c770d983864a389a79fcd9f75b9b68</title>
<image xlink:href="/mnt/Data/Workspace/HOME_LAB/NetworkDiagram/env_ND/lib/python3.9/site-packages/resources/onprem/client/client.png" width="101px" height="101px" preserveAspectRatio="xMinYMin meet" x="622" y="-2326.5"/>
<text text-anchor="middle" x="672.5" y="-2211.1" font-family="Sans-Serif" font-size="13.00" fill="#2d3436">Shelly T/H #3</text>
</g>
<!-- 0f8cb70b04d54718914797ec098e79ef&#45;&gt;33c770d983864a389a79fcd9f75b9b68 -->
<g id="edge42" class="edge">
<title>0f8cb70b04d54718914797ec098e79ef&#45;&gt;33c770d983864a389a79fcd9f75b9b68</title>
<path fill="none" stroke="red" stroke-width="2" d="M533,-2387.44C533,-2336.57 533,-2276 533,-2276 533,-2276 611.74,-2276 611.74,-2276"/>
<polygon fill="red" stroke="red" stroke-width="2" points="611.74,-2279.5 621.74,-2276 611.74,-2272.5 611.74,-2279.5"/>
</g>
<!-- ec021d1ebc3c4eeab448366ed866a0e7 -->
<g id="node13" class="node">
<title>ec021d1ebc3c4eeab448366ed866a0e7</title>
<image xlink:href="/mnt/Data/Workspace/HOME_LAB/NetworkDiagram/env_ND/lib/python3.9/site-packages/resources/onprem/client/client.png" width="101px" height="101px" preserveAspectRatio="xMinYMin meet" x="622" y="-2146.5"/>
<text text-anchor="middle" x="672.5" y="-2031.1" font-family="Sans-Serif" font-size="13.00" fill="#2d3436">Tplink light #1</text>
</g>
<!-- 0f8cb70b04d54718914797ec098e79ef&#45;&gt;ec021d1ebc3c4eeab448366ed866a0e7 -->
<g id="edge43" class="edge">
<title>0f8cb70b04d54718914797ec098e79ef&#45;&gt;ec021d1ebc3c4eeab448366ed866a0e7</title>
<path fill="none" stroke="red" stroke-width="2" d="M499,-2387.44C499,-2282.99 499,-2096 499,-2096 499,-2096 611.85,-2096 611.85,-2096"/>
<polygon fill="red" stroke="red" stroke-width="2" points="611.85,-2099.5 621.85,-2096 611.85,-2092.5 611.85,-2099.5"/>
</g>
<!-- 2fc16ed8bc9d4481a01b9c08f33212cf -->
<g id="node14" class="node">
<title>2fc16ed8bc9d4481a01b9c08f33212cf</title>
<image xlink:href="/mnt/Data/Workspace/HOME_LAB/NetworkDiagram/env_ND/lib/python3.9/site-packages/resources/onprem/client/client.png" width="101px" height="101px" preserveAspectRatio="xMinYMin meet" x="622" y="-3046.5"/>
<text text-anchor="middle" x="672.5" y="-2931.1" font-family="Sans-Serif" font-size="13.00" fill="#2d3436">Tplink light #2</text>
</g>
<!-- 0f8cb70b04d54718914797ec098e79ef&#45;&gt;2fc16ed8bc9d4481a01b9c08f33212cf -->
<g id="edge44" class="edge">
<title>0f8cb70b04d54718914797ec098e79ef&#45;&gt;2fc16ed8bc9d4481a01b9c08f33212cf</title>
<path fill="none" stroke="red" stroke-width="2" d="M491,-2524.67C491,-2670.11 491,-2996 491,-2996 491,-2996 611.94,-2996 611.94,-2996"/>
<polygon fill="red" stroke="red" stroke-width="2" points="611.94,-2999.5 621.94,-2996 611.94,-2992.5 611.94,-2999.5"/>
</g>
<!-- e875c0c005f245c7acd64c83ea0e43e3 -->
<g id="node15" class="node">
<title>e875c0c005f245c7acd64c83ea0e43e3</title>
<image xlink:href="/mnt/Data/Workspace/HOME_LAB/NetworkDiagram/env_ND/lib/python3.9/site-packages/resources/onprem/client/client.png" width="101px" height="101px" preserveAspectRatio="xMinYMin meet" x="622" y="-2866.5"/>
<text text-anchor="middle" x="672.5" y="-2751.1" font-family="Sans-Serif" font-size="13.00" fill="#2d3436">Neato D6</text>
</g>
<!-- 0f8cb70b04d54718914797ec098e79ef&#45;&gt;e875c0c005f245c7acd64c83ea0e43e3 -->
<g id="edge45" class="edge">
<title>0f8cb70b04d54718914797ec098e79ef&#45;&gt;e875c0c005f245c7acd64c83ea0e43e3</title>
<path fill="none" stroke="red" stroke-width="2" d="M516,-2524.56C516,-2629.01 516,-2816 516,-2816 516,-2816 611.69,-2816 611.69,-2816"/>
<polygon fill="red" stroke="red" stroke-width="2" points="611.69,-2819.5 621.69,-2816 611.69,-2812.5 611.69,-2819.5"/>
</g>
<!-- ee29fbe0227a4b0a9ea4fb7abbf8df75 -->
<g id="node16" class="node">
<title>ee29fbe0227a4b0a9ea4fb7abbf8df75</title>
<image xlink:href="/mnt/Data/Workspace/HOME_LAB/NetworkDiagram/env_ND/lib/python3.9/site-packages/resources/onprem/client/client.png" width="101px" height="101px" preserveAspectRatio="xMinYMin meet" x="622" y="-1963.5"/>
<text text-anchor="middle" x="672.5" y="-1848.1" font-family="Sans-Serif" font-size="13.00" fill="#2d3436">Printer Samsung m2835dw</text>
</g>
<!-- f630b7ea85ff4a1a9bed94e7e7ca6163&#45;&gt;ee29fbe0227a4b0a9ea4fb7abbf8df75 -->
<g id="edge37" class="edge">
<title>f630b7ea85ff4a1a9bed94e7e7ca6163&#45;&gt;ee29fbe0227a4b0a9ea4fb7abbf8df75</title>
<path fill="none" stroke="black" stroke-width="2" d="M566.04,-1935.83C566.04,-1935.83 611.79,-1935.83 611.79,-1935.83"/>
<polygon fill="black" stroke="black" stroke-width="2" points="611.79,-1939.33 621.79,-1935.83 611.79,-1932.33 611.79,-1939.33"/>
</g>
<!-- caac31e4e63649d9b521936cd384d798 -->
<g id="node17" class="node">
<title>caac31e4e63649d9b521936cd384d798</title>
<image xlink:href="/mnt/Data/Workspace/HOME_LAB/NetworkDiagram/env_ND/lib/python3.9/site-packages/resources/onprem/client/client.png" width="101px" height="101px" preserveAspectRatio="xMinYMin meet" x="622" y="-1783.5"/>
<text text-anchor="middle" x="672.5" y="-1668.1" font-family="Sans-Serif" font-size="13.00" fill="#2d3436">Samsung tv&#45;j6400uk</text>
</g>
<!-- f630b7ea85ff4a1a9bed94e7e7ca6163&#45;&gt;caac31e4e63649d9b521936cd384d798 -->
<g id="edge38" class="edge">
<title>f630b7ea85ff4a1a9bed94e7e7ca6163&#45;&gt;caac31e4e63649d9b521936cd384d798</title>
<path fill="none" stroke="black" stroke-width="2" d="M533,-1844.12C533,-1834.69 533,-1828.17 533,-1828.17 533,-1828.17 673,-1828.17 673,-1828.17 673,-1828.17 673,-1811.66 673,-1811.66"/>
<polygon fill="black" stroke="black" stroke-width="2" points="676.5,-1811.66 673,-1801.66 669.5,-1811.66 676.5,-1811.66"/>
</g>
<!-- a7f02f29d1f54c7c918f40682cb23a9d -->
<g id="node35" class="node">
<title>a7f02f29d1f54c7c918f40682cb23a9d</title>
<image xlink:href="/mnt/Data/Workspace/HOME_LAB/NetworkDiagram/env_ND/lib/python3.9/site-packages/resources/onprem/compute/server.png" width="101px" height="101px" preserveAspectRatio="xMinYMin meet" x="622" y="-1420.5"/>
<text text-anchor="middle" x="672.5" y="-1305.1" font-family="Sans-Serif" font-size="13.00" fill="#2d3436">HP userver gen10</text>
</g>
<!-- f630b7ea85ff4a1a9bed94e7e7ca6163&#45;&gt;a7f02f29d1f54c7c918f40682cb23a9d -->
<g id="edge34" class="edge">
<title>f630b7ea85ff4a1a9bed94e7e7ca6163&#45;&gt;a7f02f29d1f54c7c918f40682cb23a9d</title>
<path fill="none" stroke="black" stroke-width="2" d="M566.1,-1890.17C581.29,-1890.17 594,-1890.17 594,-1890.17 594,-1890.17 594,-1392.83 594,-1392.83 594,-1392.83 611.9,-1392.83 611.9,-1392.83"/>
<polygon fill="black" stroke="black" stroke-width="2" points="611.9,-1396.33 621.9,-1392.83 611.9,-1389.33 611.9,-1396.33"/>
</g>
<!-- b995b675b48f43a3bd82e0a6c805c2e0 -->
<g id="node34" class="node">
<title>b995b675b48f43a3bd82e0a6c805c2e0</title>
<image xlink:href="/mnt/Data/Workspace/HOME_LAB/NetworkDiagram/env_ND/lib/python3.9/site-packages/resources/onprem/proxmox/pve.png" width="101px" height="101px" preserveAspectRatio="xMinYMin meet" x="465" y="-1420.5"/>
<text text-anchor="middle" x="515.5" y="-1305.1" font-family="Sans-Serif" font-size="13.00" fill="#2d3436">Node #1</text>
</g>
<!-- b995b675b48f43a3bd82e0a6c805c2e0&#45;&gt;a7f02f29d1f54c7c918f40682cb23a9d -->
<g id="edge19" class="edge">
<title>b995b675b48f43a3bd82e0a6c805c2e0&#45;&gt;a7f02f29d1f54c7c918f40682cb23a9d</title>
<path fill="none" stroke="green" stroke-width="2" d="M566.04,-1347.17C583.88,-1347.17 603.93,-1347.17 621.79,-1347.17"/>
</g>
<!-- a7f02f29d1f54c7c918f40682cb23a9d&#45;&gt;314241116476425c9fe8063e17844039 -->
<g id="edge20" class="edge">
<title>a7f02f29d1f54c7c918f40682cb23a9d&#45;&gt;314241116476425c9fe8063e17844039</title>
<path fill="none" stroke="blue" stroke-width="2" d="M723.25,-1370C748.62,-1370 774,-1370 774,-1370 774,-1370 774,-1032.83 774,-1032.83 774,-1032.83 776.16,-1032.83 779.62,-1032.83"/>
</g>
<!-- a7f02f29d1f54c7c918f40682cb23a9d&#45;&gt;d52562ce8f614a72a1efc8f73adea193 -->
<g id="edge21" class="edge">
<title>a7f02f29d1f54c7c918f40682cb23a9d&#45;&gt;d52562ce8f614a72a1efc8f73adea193</title>
<path fill="none" stroke="blue" stroke-width="2" d="M723.07,-1358.58C745.54,-1358.58 767,-1358.58 767,-1358.58 767,-1358.58 767,-852.83 767,-852.83 767,-852.83 772.31,-852.83 779.85,-852.83"/>
</g>
<!-- a7f02f29d1f54c7c918f40682cb23a9d&#45;&gt;ea47c044c3fd4f66b63e6c6515853812 -->
<g id="edge22" class="edge">
<title>a7f02f29d1f54c7c918f40682cb23a9d&#45;&gt;ea47c044c3fd4f66b63e6c6515853812</title>
<path fill="none" stroke="blue" stroke-width="2" d="M723.12,-1347.17C741.11,-1347.17 757,-1347.17 757,-1347.17 757,-1347.17 757,-672.83 757,-672.83 757,-672.83 767.12,-672.83 779.85,-672.83"/>
</g>
<!-- a7f02f29d1f54c7c918f40682cb23a9d&#45;&gt;d104afaebd074c9eac2383af0bf9a666 -->
<g id="edge23" class="edge">
<title>a7f02f29d1f54c7c918f40682cb23a9d&#45;&gt;d104afaebd074c9eac2383af0bf9a666</title>
<path fill="none" stroke="blue" stroke-width="2" d="M723.02,-1335.75C736.3,-1335.75 747,-1335.75 747,-1335.75 747,-1335.75 747,-492.83 747,-492.83 747,-492.83 762.14,-492.83 779.52,-492.83"/>
</g>
<!-- a7f02f29d1f54c7c918f40682cb23a9d&#45;&gt;429c58248e58456c981c1ef39c75e36b -->
<g id="edge24" class="edge">
<title>a7f02f29d1f54c7c918f40682cb23a9d&#45;&gt;429c58248e58456c981c1ef39c75e36b</title>
<path fill="none" stroke="blue" stroke-width="2" d="M723,-1324.33C731.16,-1324.33 737,-1324.33 737,-1324.33 737,-1324.33 737,-312.83 737,-312.83 737,-312.83 757.89,-312.83 779.92,-312.83"/>
</g>
<!-- a7f02f29d1f54c7c918f40682cb23a9d&#45;&gt;9b77fbdcfdd9403f8a994b015adce0f5 -->
<g id="edge25" class="edge">
<title>a7f02f29d1f54c7c918f40682cb23a9d&#45;&gt;9b77fbdcfdd9403f8a994b015adce0f5</title>
<path fill="none" stroke="blue" stroke-width="2" d="M723.08,-1312.92C725.53,-1312.92 727,-1312.92 727,-1312.92 727,-1312.92 727,-132.83 727,-132.83 727,-132.83 753.69,-132.83 779.96,-132.83"/>
</g>
<!-- a7f02f29d1f54c7c918f40682cb23a9d&#45;&gt;6f369cd214e0402e8382261443070a70 -->
<g id="edge26" class="edge">
<title>a7f02f29d1f54c7c918f40682cb23a9d&#45;&gt;6f369cd214e0402e8382261443070a70</title>
<path fill="none" stroke="blue" stroke-width="2" d="M723.4,-1427.08C727.44,-1427.08 730,-1427.08 730,-1427.08 730,-1427.08 730,-2474.83 730,-2474.83 730,-2474.83 754.93,-2474.83 779.96,-2474.83"/>
</g>
<!-- a7f02f29d1f54c7c918f40682cb23a9d&#45;&gt;dca9f89485ca4756801e22f45058f8a6 -->
<g id="edge27" class="edge">
<title>a7f02f29d1f54c7c918f40682cb23a9d&#45;&gt;dca9f89485ca4756801e22f45058f8a6</title>
<path fill="none" stroke="blue" stroke-width="2" d="M723.31,-1415.67C732.9,-1415.67 740,-1415.67 740,-1415.67 740,-1415.67 740,-2294.83 740,-2294.83 740,-2294.83 759.23,-2294.83 779.96,-2294.83"/>
</g>
<!-- a7f02f29d1f54c7c918f40682cb23a9d&#45;&gt;246148d5e6324776a3573265903f1b69 -->
<g id="edge28" class="edge">
<title>a7f02f29d1f54c7c918f40682cb23a9d&#45;&gt;246148d5e6324776a3573265903f1b69</title>
<path fill="none" stroke="blue" stroke-width="2" d="M723.33,-1404.25C737.94,-1404.25 750,-1404.25 750,-1404.25 750,-1404.25 750,-2114.83 750,-2114.83 750,-2114.83 763.8,-2114.83 779.98,-2114.83"/>
</g>
<!-- a7f02f29d1f54c7c918f40682cb23a9d&#45;&gt;aeb9ddf8e60d4eee86d20be4a801ee22 -->
<g id="edge29" class="edge">
<title>a7f02f29d1f54c7c918f40682cb23a9d&#45;&gt;aeb9ddf8e60d4eee86d20be4a801ee22</title>
<path fill="none" stroke="blue" stroke-width="2" d="M723.15,-1392.83C742.5,-1392.83 760,-1392.83 760,-1392.83 760,-1392.83 760,-1933.83 760,-1933.83 760,-1933.83 768.52,-1933.83 779.64,-1933.83"/>
</g>
<!-- a7f02f29d1f54c7c918f40682cb23a9d&#45;&gt;f5af2958674e4e07b5a3e6edfcc62b73 -->
<g id="edge30" class="edge">
<title>a7f02f29d1f54c7c918f40682cb23a9d&#45;&gt;f5af2958674e4e07b5a3e6edfcc62b73</title>
<path fill="none" stroke="blue" stroke-width="2" d="M656,-1438.51C656,-1518.94 656,-1641.5 656,-1641.5 656,-1641.5 831,-1641.5 831,-1641.5 831,-1641.5 831,-1649.72 831,-1661.14"/>
</g>
<!-- a7f02f29d1f54c7c918f40682cb23a9d&#45;&gt;2fddb730504f49bf9fa64d53712e4eff -->
<g id="edge31" class="edge">
<title>a7f02f29d1f54c7c918f40682cb23a9d&#45;&gt;2fddb730504f49bf9fa64d53712e4eff</title>
<path fill="none" stroke="blue" stroke-width="2" d="M690,-1438.72C690,-1497.9 690,-1573.83 690,-1573.83 690,-1573.83 739.53,-1573.83 779.78,-1573.83"/>
</g>
<!-- a7f02f29d1f54c7c918f40682cb23a9d&#45;&gt;1719746f384741f1ae195c46a57965d8 -->
<g id="edge32" class="edge">
<title>a7f02f29d1f54c7c918f40682cb23a9d&#45;&gt;1719746f384741f1ae195c46a57965d8</title>
<path fill="none" stroke="blue" stroke-width="2" d="M723.36,-1381.42C741.4,-1381.42 761.7,-1381.42 779.73,-1381.42"/>
</g>
<!-- a7f02f29d1f54c7c918f40682cb23a9d&#45;&gt;0c93ceb6045b4a6e8114168469cab269 -->
<g id="edge33" class="edge">
<title>a7f02f29d1f54c7c918f40682cb23a9d&#45;&gt;0c93ceb6045b4a6e8114168469cab269</title>
<path fill="none" stroke="blue" stroke-width="2" d="M690,-1301.46C690,-1285.38 690,-1272.83 690,-1272.83 690,-1272.83 848,-1272.83 848,-1272.83 848,-1272.83 848,-1267.16 848,-1258.78"/>
</g>
</g>
</svg>
